{
    "docs": [
      {
        "type": "Program Mgmt",
        "labourInspectors": [],
        "keyLocations": [],
        "disabled": false,
        "status": "Active",
        "numberScreeningsDone": 80003,
        "_id": "6731841abfc10e1efe969dd9",
        "stateName": "Karnataka",
        "districtName": "Tumkur",
        "totalBeneficiaries": 33500,
        "programNumber": "Madhugiri, ಕಕಾಮಂ/ಪಿಹೆಚ್ ಸಿ/ಸಿಆರ್-28/2024-2025",
        "programStartDate": "2024-11-10T18:30:00.000Z",
        "issuingAuthority": "CEO & Secretary, Karnataka State Building and Other Construction Worker's Welfare Board",
        "labourOfficerName": "Fairoz pasha",
        "remarks": "Ashwini Hospital",
        "programShortCode": "Tumkur_11_Mad",
        "createdAt": "2024-11-11T04:12:10.676Z",
        "createdBy": {
          "_id": "6731841abfc10e1efe969dda",
          "name": "amit",
          "userId": "63b291867e77bb4d6248b3ab",
          "userType": "SuperUser"
        },
        "updatedAt": "2025-02-28T11:45:17.460Z",
        "__v": 0
      },
      {
        "type": "Program Mgmt",
        "labourInspectors": [],
        "keyLocations": [],
        "disabled": false,
        "status": "Active",
        "numberScreeningsDone": 68511,
        "_id": "673c747afaffae38bbf48ff3",
        "stateName": "Karnataka",
        "districtName": "Mandya",
        "totalBeneficiaries": 33500,
        "programNumber": "Mandya,ಕಕಾಮಂ/ಪಿಹೆಚ್ ಸಿ/ಸಿಆರ್- 26 / 2024-25",
        "programStartDate": "2024-11-20T18:30:00.000Z",
        "issuingAuthority": "CEO & Secretary, Karnataka State Building and Other Construction Worker's Welfare Board",
        "programShortCode": "Mandya_11_Man",
        "createdAt": "2024-11-19T11:20:26.878Z",
        "createdBy": {
          "_id": "673c747afaffae38bbf48ff4",
          "name": "raghavendra",
          "userId": "673c4a6fbfc10e1efe9a6836",
          "userType": "Superviser"
        },
        "updatedAt": "2025-03-20T11:58:23.912Z",
        "__v": 0,
        "updatedBy": {
          "_id": "673c753fbfc10e1efe9ab70f",
          "name": "raghavendra",
          "userId": "673c4a6fbfc10e1efe9a6836",
          "userType": "Superviser"
        },
        "labourOfficerName": "Subhash",
        "remarks": "Blossom Hospital"
      },
      {
        "type": "Program Mgmt",
        "labourInspectors": [],
        "keyLocations": [],
        "disabled": false,
        "status": "Active",
        "numberScreeningsDone": 81563,
        "_id": "673ead144f9f547fbd3f1bb1",
        "stateName": "Karnataka",
        "districtName": "Belgaum",
        "totalBeneficiaries": 33500,
        "programStartDate": "2024-11-20T18:30:00.000Z",
        "programNumber": "Belgavi Div-02,ಕಕಾಮಂ/ಪಿಹೆಚ್ ಸಿ/ಸಿಆರ್-29/2024-25",
        "labourOfficerName": "Rajesh Jadav",
        "remarks": "ClearMeadi",
        "issuingAuthority": "CEO & Secretary, Karnataka State Building and Other Construction Worker's Welfare Board",
        "programShortCode": "Belgaum_11_Bel",
        "createdAt": "2024-11-21T03:46:28.780Z",
        "createdBy": {
          "_id": "673ead144f9f547fbd3f1bb2",
          "name": "john",
          "userId": "63d7a6e5b443485c6cec6c14",
          "userType": "HCW"
        },
        "updatedAt": "2025-03-20T11:57:41.193Z",
        "__v": 0,
        "updatedBy": {
          "_id": "673ead5d7e008a2aeedadcde",
          "name": "john",
          "userId": "63d7a6e5b443485c6cec6c14",
          "userType": "HCW"
        }
      },
      {
        "type": "Program Mgmt",
        "labourInspectors": [],
        "keyLocations": [],
        "disabled": false,
        "status": "Active",
        "numberScreeningsDone": 54328,
        "_id": "674154274f9f547fbd4259fd",
        "stateName": "Karnataka",
        "districtName": "Dharwad",
        "totalBeneficiaries": 33500,
        "programNumber": "Hubli Div-02,ಕಕಾಮಂ/ಪಿಹೆಚ್ ಸಿ/ಸಿಆರ್- 32 / 2024-25",
        "programStartDate": "2024-11-22T18:30:00.000Z",
        "issuingAuthority": "CEO & Secretary, Karnataka State Building and Other Construction Worker's Welfare Board",
        "programShortCode": "Dharwad_11_Hub",
        "createdAt": "2024-11-23T04:03:51.588Z",
        "createdBy": {
          "_id": "674154274f9f547fbd4259fe",
          "name": "shreekantkaveeshwar@gmail.com",
          "userId": "6551ee9f97e9dd4ee32755ce",
          "userType": "SuperUser"
        },
        "updatedAt": "2025-03-20T11:58:28.175Z",
        "__v": 0,
        "updatedBy": {
          "_id": "6741687eb670d770e55c0c19",
          "name": "john",
          "userId": "63d7a6e5b443485c6cec6c14",
          "userType": "HCW"
        },
        "remarks": "Sanjivini Hospital"
      },
      {
        "type": "Program Mgmt",
        "labourInspectors": [],
        "keyLocations": [],
        "disabled": false,
        "status": "Active",
        "numberScreeningsDone": 19891,
        "_id": "674e88fb904d550403eead67",
        "stateName": "Karnataka",
        "districtName": "Bangalore",
        "totalBeneficiaries": 33500,
        "programNumber": "Bangalore Div-05,ಕಕಾಮಂ/ಪಿಹೆಚ್ ಸಿ/ಸಿಆರ್- 30 / 2024 - 25",
        "programStartDate": "2024-11-16T18:30:00.000Z",
        "labourOfficerName": "Manjula Devi",
        "remarks": "Ashwini Hospital",
        "issuingAuthority": "CEO & Secretary, Karnataka State Building and Other Construction Worker's Welfare Board",
        "programShortCode": "Bangalore_1_Ban",
        "createdAt": "2024-12-03T04:28:43.180Z",
        "createdBy": {
          "_id": "674e88fb904d550403eead68",
          "name": "john",
          "userId": "63d7a6e5b443485c6cec6c14",
          "userType": "HCW"
        },
        "updatedAt": "2025-03-16T16:17:06.719Z",
        "__v": 0,
        "updatedBy": {
          "_id": "674e890a904d550403eead73",
          "name": "john",
          "userId": "63d7a6e5b443485c6cec6c14",
          "userType": "HCW"
        }
      },
      {
        "type": "Program Mgmt",
        "labourInspectors": [],
        "keyLocations": [],
        "disabled": false,
        "status": "Active",
        "numberScreeningsDone": 111,
        "_id": "6757e7f4d0462008c635639a",
        "stateName": "Karnataka",
        "districtName": "Bangalore",
        "totalBeneficiaries": 33500,
        "programNumber": "ApolloDummy1234",
        "issuingAuthority": "Dummy",
        "programShortCode": "Bangalore_12_Apo",
        "createdAt": "2024-12-10T07:04:20.892Z",
        "createdBy": {
          "_id": "6757e7f4d0462008c635639b",
          "name": "amit",
          "userId": "63b291867e77bb4d6248b3ab",
          "userType": "SuperUser"
        },
        "updatedAt": "2025-03-20T07:51:29.854Z",
        "__v": 0
      },
      {
        "type": "Program Mgmt",
        "labourInspectors": [],
        "keyLocations": [],
        "disabled": false,
        "status": "Active",
        "numberScreeningsDone": 13188,
        "_id": "6774c2df753893550cbb0b1c",
        "stateName": "Karnataka",
        "districtName": "Gadag",
        "totalBeneficiaries": 33500,
        "programNumber": "Gadag,ಕಕಾಮಂ/ಪಿಹೆಚ್ ಸಿ/ಸಿಆರ್- 27/ 2024-25",
        "programStartDate": "2024-12-31T18:30:00.000Z",
        "issuingAuthority": "CEO & Secretary, Karnataka State Building and Other Construction Worker's Welfare Board",
        "programShortCode": "Gadag_2_Gad",
        "createdAt": "2025-01-01T04:21:51.451Z",
        "createdBy": {
          "_id": "6774c2df753893550cbb0b1d",
          "name": "joshwin",
          "userId": "659645442053252217e458c4",
          "userType": "HCW"
        },
        "updatedAt": "2025-03-14T18:04:28.676Z",
        "__v": 0,
        "updatedBy": {
          "_id": "6774c4c7923a9214fa0cfae3",
          "name": "joshwin",
          "userId": "659645442053252217e458c4",
          "userType": "HCW"
        },
        "labourOfficerName": "Shrishal Somanakatti",
        "remarks": "Clear Medi"
      },
      {
        "type": "Program Mgmt",
        "labourInspectors": [],
        "keyLocations": [],
        "disabled": false,
        "status": "Active",
        "numberScreeningsDone": 93264,
        "_id": "678201df4fa7c845fee916e6",
        "stateName": "Karnataka",
        "districtName": "Mysore",
        "totalBeneficiaries": 33500,
        "programNumber": "Mysore,ಕಕಾಮಂ/ಪಿಹೆಚ್ ಸಿ/ಸಿಆರ್- 35/ 2024-25",
        "programStartDate": "2025-01-11T18:30:00.000Z",
        "labourOfficerName": "Chethan Kumar",
        "issuingAuthority": "CEO & Secretary, Karnataka State Building and Other Construction Worker's Welfare Board",
        "remarks": "Blossom Hospital",
        "programShortCode": "Mysore_1_Mys",
        "createdAt": "2025-01-11T05:30:07.528Z",
        "createdBy": {
          "_id": "678201df4fa7c845fee916e7",
          "name": "john",
          "userId": "63d7a6e5b443485c6cec6c14",
          "userType": "HCW"
        },
        "updatedAt": "2025-03-20T11:45:14.942Z",
        "__v": 0,
        "updatedBy": {
          "_id": "6788af30ccd9323fec899a95",
          "name": "mary",
          "userId": "63d7a65e210a1e5cc4b1dcc8",
          "userType": "HCW"
        }
      },
      {
        "type": "Program Mgmt",
        "labourInspectors": [],
        "keyLocations": [],
        "disabled": false,
        "status": "Active",
        "numberScreeningsDone": 33082,
        "_id": "67a444eb5d4e4678f19ba30f",
        "stateName": "Karnataka",
        "districtName": "Vijayanagara",
        "totalBeneficiaries": 33500,
        "issuingAuthority": "CEO & Secretary, Karnataka State Building and Other Construction Worker's Welfare Board",
        "programNumber": "Vijayanagara,ಕಕಾಮಂ/ಪಿಹೆಚ್ ಸಿ/ಸಿಆರ್- 55 / 2024 -25",
        "programStartDate": "2025-02-05T18:30:00.000Z",
        "remarks": "Ashwini Hospital",
        "programShortCode": "Vijayanagara_2_Vij",
        "createdAt": "2025-02-06T05:13:15.968Z",
        "createdBy": {
          "_id": "67a444eb5d4e4678f19ba310",
          "name": "john",
          "userId": "63d7a6e5b443485c6cec6c14",
          "userType": "HCW"
        },
        "updatedAt": "2025-03-20T11:57:34.282Z",
        "__v": 0
      },
      {
        "type": "Program Mgmt",
        "labourInspectors": [],
        "keyLocations": [],
        "disabled": false,
        "status": "Active",
        "numberScreeningsDone": 25104,
        "_id": "67a8b1ef375b412a7f85c172",
        "stateName": "Karnataka",
        "districtName": "Hassan",
        "totalBeneficiaries": 33500,
        "programNumber": "Hassan,ಕಕಾಮಂ/ಪಿಹೆಚ್ ಸಿ/ಸಿಆರ್- 44/ 2024-25",
        "programStartDate": "2025-02-08T18:30:00.000Z",
        "issuingAuthority": "CEO & Secretary, Karnataka State Building and Other Construction Worker's Welfare Board",
        "remarks": "Blossom Hospital",
        "programShortCode": "Hassan_2_Has",
        "createdAt": "2025-02-09T13:47:27.097Z",
        "createdBy": {
          "_id": "67a8b1ef375b412a7f85c173",
          "name": "mary",
          "userId": "63d7a65e210a1e5cc4b1dcc8",
          "userType": "HCW"
        },
        "updatedAt": "2025-03-20T11:58:34.823Z",
        "__v": 0,
        "labourOfficerName": "Shashikala",
        "updatedBy": {
          "_id": "67a8b30065c06161d4349710",
          "name": "mary",
          "userId": "63d7a65e210a1e5cc4b1dcc8",
          "userType": "HCW"
        }
      },
      {
        "type": "Program Mgmt",
        "labourInspectors": [],
        "keyLocations": [],
        "disabled": false,
        "status": "Active",
        "numberScreeningsDone": 19432,
        "_id": "67aad4efcfae0d089f34c28c",
        "stateName": "Karnataka",
        "districtName": "Shimoga",
        "totalBeneficiaries": 33500,
        "programNumber": "Shimoga,ಕಕಾಮಂ/ಪಿಹೆಚ್ ಸಿ/ಸಿಆರ್- 46 / 2024 -25",
        "programStartDate": "2025-02-10T18:30:00.000Z",
        "issuingAuthority": "CEO & Secretary, Karnataka State Building and Other Construction Worker's Welfare Board",
        "labourOfficerName": "Krishna M",
        "remarks": "Clear Medi",
        "programShortCode": "Shimoga_2_Shi",
        "createdAt": "2025-02-11T04:41:19.478Z",
        "createdBy": {
          "_id": "67aad4efcfae0d089f34c28d",
          "name": "mary",
          "userId": "63d7a65e210a1e5cc4b1dcc8",
          "userType": "HCW"
        },
        "updatedAt": "2025-03-20T11:57:48.061Z",
        "__v": 0,
        "updatedBy": {
          "_id": "67ac0d9d213e3566271fde16",
          "name": "mary",
          "userId": "63d7a65e210a1e5cc4b1dcc8",
          "userType": "HCW"
        }
      },
      {
        "type": "Program Mgmt",
        "labourInspectors": [],
        "keyLocations": [],
        "disabled": false,
        "status": "Active",
        "numberScreeningsDone": 16392,
        "_id": "67aedffaec0c117a1bf85dc3",
        "stateName": "Karnataka",
        "districtName": "Kolar",
        "totalBeneficiaries": 33500,
        "programNumber": "Kolar,ಕಕಾಮಂ/ಪಿಹೆಚ್ ಸಿ/ಸಿಆರ್- 42 / 2024 -25",
        "programStartDate": "2025-02-13T18:30:00.000Z",
        "issuingAuthority": "CEO & Secretary, Karnataka State Building and Other Construction Worker's Welfare Board",
        "labourOfficerName": "Varalakshmi",
        "remarks": "Clear Medi",
        "programShortCode": "Kolar_2_Kol",
        "createdAt": "2025-02-14T06:17:30.229Z",
        "createdBy": {
          "_id": "67aedffaec0c117a1bf85dc4",
          "name": "john",
          "userId": "63d7a6e5b443485c6cec6c14",
          "userType": "HCW"
        },
        "updatedAt": "2025-03-20T11:56:46.439Z",
        "__v": 0
      },
      {
        "type": "Program Mgmt",
        "labourInspectors": [],
        "keyLocations": [],
        "disabled": false,
        "status": "Active",
        "numberScreeningsDone": 15216,
        "_id": "67b002d326da5c759e92804e",
        "stateName": "Karnataka",
        "districtName": "Ramanagar",
        "totalBeneficiaries": 33500,
        "programStartDate": "2025-02-14T18:30:00.000Z",
        "issuingAuthority": "CEO & Secretary, Karnataka State Building and Other Construction Worker's Welfare Board",
        "programNumber": "Ramanagar,ಕಕಾಮಂ/ಪಿಹೆಚ್ ಸಿ/ಸಿಆರ್- 39 / 2024 -25",
        "programShortCode": "Ramanagar_2_Ram",
        "createdAt": "2025-02-15T02:58:27.305Z",
        "createdBy": {
          "_id": "67b002d326da5c759e92804f",
          "name": "joshwin",
          "userId": "659645442053252217e458c4",
          "userType": "HCW"
        },
        "updatedAt": "2025-03-20T11:57:44.967Z",
        "__v": 0,
        "updatedBy": {
          "_id": "67b003e75fcd896a5b06fac1",
          "name": "joshwin",
          "userId": "659645442053252217e458c4",
          "userType": "HCW"
        },
        "remarks": "Blossom Hospital",
        "labourOfficerName": "Nagendra"
      },
      {
        "type": "Program Mgmt",
        "labourInspectors": [],
        "keyLocations": [],
        "disabled": false,
        "status": "Active",
        "numberScreeningsDone": 20758,
        "_id": "67b40db81eca58356a2d3651",
        "stateName": "Karnataka",
        "districtName": "Chitradurga",
        "totalBeneficiaries": 33500,
        "programNumber": "Chitradurga,ಕಕಾಮಂ/ಪಿಹೆಚ್ ಸಿ/ಸಿಆರ್- 47/ 2024 -25",
        "programStartDate": "2025-02-17T18:30:00.000Z",
        "remarks": "ClearMedi",
        "issuingAuthority": "CEO & Secretary, Karnataka State Building and Other Construction Worker's Welfare Board",
        "programShortCode": "Chitradurga_2_Chi",
        "createdAt": "2025-02-18T04:34:00.426Z",
        "createdBy": {
          "_id": "67b40db81eca58356a2d3652",
          "name": "joshwin",
          "userId": "659645442053252217e458c4",
          "userType": "HCW"
        },
        "updatedAt": "2025-03-20T11:57:33.846Z",
        "__v": 0,
        "updatedBy": {
          "_id": "67b40dd3b48125334b1fd8f2",
          "name": "joshwin",
          "userId": "659645442053252217e458c4",
          "userType": "HCW"
        }
      },
      {
        "type": "Program Mgmt",
        "labourInspectors": [
          "Jagadevi sajan"
        ],
        "keyLocations": [],
        "disabled": false,
        "status": "Active",
        "numberScreeningsDone": 2831,
        "_id": "67b982b88fcab9703d59d8f9",
        "stateName": "Karnataka",
        "districtName": "Bijapur(KAR)",
        "totalBeneficiaries": 33500,
        "issuingAuthority": "CEO & Secretary, Karnataka State Building and Other Construction Worker's Welfare Board",
        "remarks": "Blossom Hospital",
        "programNumber": "Bijapur,ಕಕಾಮಂ/ಪಿಹೆಚ್ ಸಿ/ಸಿಆರ್- 43 / 2024 -25",
        "programShortCode": "Bijapur(KAR)_2_Bij",
        "createdAt": "2025-02-22T07:54:32.424Z",
        "createdBy": {
          "_id": "67b982b88fcab9703d59d8fa",
          "name": "john",
          "userId": "63d7a6e5b443485c6cec6c14",
          "userType": "HCW"
        },
        "updatedAt": "2025-03-20T11:55:36.318Z",
        "__v": 0,
        "labourOfficerName": "Umashree Koli",
        "updatedBy": {
          "_id": "67b98a5705cb7f5b22ec0050",
          "name": "john",
          "userId": "63d7a6e5b443485c6cec6c14",
          "userType": "HCW"
        }
      },
      {
        "type": "Program Mgmt",
        "labourInspectors": [
          "DEVENDR NATIKAR"
        ],
        "keyLocations": [],
        "disabled": false,
        "status": "Active",
        "numberScreeningsDone": 7217,
        "_id": "67c53ae4ff9bd93cdb328d77",
        "stateName": "Karnataka",
        "districtName": "Haveri",
        "totalBeneficiaries": 33500,
        "programNumber": "Haveri,ಕಕಾಮಂ/ಪಿಹೆಚ್ ಸಿ/ಸಿಆರ್- 52/ 2024 -25",
        "issuingAuthority": "CEO & Secretary, Karnataka State Building and Other Construction Worker's Welfare Board",
        "labourOfficerName": "TARANAM BENGALI",
        "remarks": "ClearMedi",
        "programStartDate": "2025-03-02T18:30:00.000Z",
        "programShortCode": "Haveri_3_Hav",
        "createdAt": "2025-03-03T05:15:16.666Z",
        "createdBy": {
          "_id": "67c53ae4ff9bd93cdb328d78",
          "name": "john",
          "userId": "63d7a6e5b443485c6cec6c14",
          "userType": "HCW"
        },
        "updatedAt": "2025-03-20T11:56:51.554Z",
        "__v": 0
      },
      {
        "type": "Program Mgmt",
        "labourInspectors": [],
        "keyLocations": [],
        "disabled": false,
        "status": "Active",
        "numberScreeningsDone": 2684,
        "_id": "67c594583518583b417e9bc2",
        "stateName": "Karnataka",
        "districtName": "Chamrajnagar",
        "totalBeneficiaries": 33500,
        "programNumber": "Chamrajnagar,ಕಕಾಮಂ/ಪಿಹೆಚ್ ಸಿ/ಸಿಆರ್- 45/ 2024 -25",
        "labourOfficerName": "Savitha",
        "remarks": "ClearMedi",
        "issuingAuthority": "CEO & Secretary, Karnataka State Building and Other Construction Worker's Welfare Board",
        "programShortCode": "Chamrajnagar_3_Cha",
        "createdAt": "2025-03-03T11:36:56.168Z",
        "createdBy": {
          "_id": "67c594583518583b417e9bc3",
          "name": "john",
          "userId": "63d7a6e5b443485c6cec6c14",
          "userType": "HCW"
        },
        "updatedAt": "2025-03-20T11:56:31.477Z",
        "__v": 0
      },
      {
        "type": "Program Mgmt",
        "labourInspectors": [
          "Mohammad Umar gani"
        ],
        "keyLocations": [],
        "disabled": false,
        "status": "Active",
        "numberScreeningsDone": 666,
        "_id": "67ca575b78cb103ca6fd16e6",
        "stateName": "Karnataka",
        "districtName": "Raichur",
        "totalBeneficiaries": 33500,
        "issuingAuthority": "CEO & Secretary, Karnataka State Building and Other Construction Worker's Welfare Board",
        "programStartDate": "2025-03-06T18:30:00.000Z",
        "programNumber": "Raichur,ಕಕಾಮಂ/ಪಿಹೆಚ್ ಸಿ/ಸಿಆರ್- 49/ 2024 -25",
        "remarks": "ClearMedi",
        "programShortCode": "Raichur_3_Rai",
        "createdAt": "2025-03-07T02:18:03.542Z",
        "createdBy": {
          "_id": "67ca575b78cb103ca6fd16e7",
          "name": "john",
          "userId": "63d7a6e5b443485c6cec6c14",
          "userType": "HCW"
        },
        "updatedAt": "2025-03-19T15:18:32.403Z",
        "__v": 0,
        "labourOfficerName": "Smt Arathi",
        "updatedBy": {
          "_id": "67ca9c2e26bd892326c843f7",
          "name": "john",
          "userId": "63d7a6e5b443485c6cec6c14",
          "userType": "HCW"
        }
      },
      {
        "type": "Program Mgmt",
        "labourInspectors": [],
        "keyLocations": [],
        "disabled": false,
        "status": "Active",
        "numberScreeningsDone": 382,
        "_id": "67d0458d96633b0bc7d151c6",
        "stateName": "Karnataka",
        "districtName": "Chikkaballapur",
        "totalBeneficiaries": 33500,
        "programNumber": "Chikkaballapura,ಕಕಾಮಂ/ಪಿಹೆಚ್ ಸಿ/ಸಿಆರ್- 54/ 2024 -25",
        "programStartDate": "2025-03-10T18:30:00.000Z",
        "issuingAuthority": "CEO & Secretary, Karnataka State Building and Other Construction Worker's Welfare Board",
        "labourOfficerName": "Shabhana",
        "programShortCode": "Chikkaballapur_3_Chi",
        "createdAt": "2025-03-11T14:15:41.928Z",
        "createdBy": {
          "_id": "67d0458d96633b0bc7d151c7",
          "name": "raghavendra",
          "userId": "673c4a6fbfc10e1efe9a6836",
          "userType": "Superviser"
        },
        "updatedAt": "2025-03-20T11:58:27.835Z",
        "__v": 0,
        "remarks": "ClearMedi",
        "updatedBy": {
          "_id": "67d0469c17a9c229a6af6a65",
          "name": "raghavendra",
          "userId": "673c4a6fbfc10e1efe9a6836",
          "userType": "Superviser"
        }
      },
      {
        "type": "Program Mgmt",
        "labourInspectors": [
          "Mahadevappa"
        ],
        "keyLocations": [],
        "disabled": false,
        "status": "Active",
        "numberScreeningsDone": 2347,
        "_id": "67d3ae2a88322d33388791f8",
        "stateName": "Karnataka",
        "districtName": "Chickmagalur",
        "totalBeneficiaries": 33500,
        "programNumber": "Chickmagalur,ಕಕಾಮಂ/ಪಿಹೆಚ್ ಸಿ/ಸಿಆರ್- 53/ 2024 -25",
        "programStartDate": "2025-03-13T18:30:00.000Z",
        "issuingAuthority": "CEO & Secretary, Karnataka State Building and Other Construction Worker's Welfare Board",
        "remarks": "Clear Medi",
        "programShortCode": "Chickmagalur_3_Chi",
        "createdAt": "2025-03-14T04:18:50.490Z",
        "createdBy": {
          "_id": "67d3ae2a88322d33388791f9",
          "name": "mary",
          "userId": "63d7a65e210a1e5cc4b1dcc8",
          "userType": "HCW"
        },
        "updatedAt": "2025-03-20T11:56:43.336Z",
        "__v": 0,
        "labourOfficerName": "Prabhakar",
        "updatedBy": {
          "_id": "67d3b1db88322d333887a0ab",
          "name": "mary",
          "userId": "63d7a65e210a1e5cc4b1dcc8",
          "userType": "HCW"
        }
      }
    ],
    "totalDocs": 24,
    "limit": 20,
    "totalPages": 2,
    "page": 1,
    "pagingCounter": 1,
    "hasPrevPage": false,
    "hasNextPage": true,
    "prevPage": null,
    "nextPage": 2
  }